{
  "__type__": "cc.AnimationClip",
  "_name": "mario_idle",
  "_objFlags": 0,
  "_native": "",
  "_duration": 0.016666666666666666,
  "sample": 60,
  "speed": 1,
  "wrapMode": 2,
  "curveData": {
    "comps": {
      "cc.Sprite": {
        "spriteFrame": [
          {
            "frame": 0,
            "value": {
              "__uuid__": "24f6f38e-adcb-48d6-b503-1c96f89f280a"
            }
          }
        ]
      }
    }
  },
  "events": []
}