{
  "__type__": "cc.AnimationClip",
  "_name": "mario_HI",
  "_objFlags": 0,
  "_native": "",
  "_duration": 0.26666666666666666,
  "sample": 60,
  "speed": 0.5,
  "wrapMode": 2,
  "curveData": {
    "comps": {
      "cc.Sprite": {
        "spriteFrame": [
          {
            "frame": 0.016666666666666666,
            "value": {
              "__uuid__": "8633f7f9-7420-474f-9aa2-3dc71dc8e8f1"
            }
          },
          {
            "frame": 0.08333333333333333,
            "value": {
              "__uuid__": "851a03b9-57db-4669-99f7-6b8d9175d4c9"
            }
          },
          {
            "frame": 0.16666666666666666,
            "value": {
              "__uuid__": "e162df79-6913-4c77-8615-b4668ad6f924"
            }
          },
          {
            "frame": 0.25,
            "value": {
              "__uuid__": "851a03b9-57db-4669-99f7-6b8d9175d4c9"
            }
          }
        ]
      }
    }
  },
  "events": [
    {
      "frame": 0.25,
      "func": "loading",
      "params": []
    }
  ]
}